20240
20300
20301
20302
20303
20304
8003
8002
8001
7260
2082
2081
2080
2069
2068
2067
2066
2065
2063
2060
2054
2053
2052
2051
2050
2033
2032
2029
2028
2027
2026
2025
903
902
901
744
743
742
741
740
730
723
720
707
706
705
704
703
702
701
700
207
204
201
200
79
78
77
75
71
4
3
